Tidyverse | Danny James Williams
…
When joining the data sets, the command %>% was used. This is referred to as a ‘pipe’, and is a part of the magrittr package. It iteratively performs operations such as the ones demonstrated above. In this case, it took the first input train, a dataset, then performed the function right_join, of which the first argument of the function was automatically defined as train. Pipes are very useful in organising and structuring code, and allow you to neatly run a lot of commands in one line.

Now, imagine that we wanted to look at the average meter reading for each type of building, grouped by respective primary use, at each hour of the day. We first need to restructure our data slightly to achieve this. Since our timestamp column is a string containing the date and the time of the meter reading, we can subset this to just the first two characters of the time, which are in positions 12 and 13.

new.train$time = as.numeric(substr(new.train$timestamp, 12, 13))

This has created a new column in the new.train dataframe which corresponds to which hour the meter reading was taken. Now we can pipe the group_by and summarise functions through new.train to average over the different type of building and the time of day.

meanreadings = new.train %>% group_by(time, primary_use) %>% 
                    summarise(mean=mean(meter_reading))
meanreadings

## # A tibble: 384 x 3
## # Groups:   time [24]
##     time primary_use                    mean
##    <dbl> <fct>                         <dbl>
##  1     0 Education                     4488.
##  2     0 Entertainment/public assembly  448.
##  3     0 Food sales and service         335.
##  4     0 Healthcare                     757.
##  5     0 Lodging/residential            271.
##  6     0 Manufacturing/industrial       273.
##  7     0 Office                         484.
##  8     0 Other                          127.
##  9     0 Parking                        183.
## 10     0 Public services                264.
## # … with 374 more rows
…
